The quick coding way to model a steady state solution • RTTshiny
…
Here is what the processed data look like before ‘nesting’ it

#> # A tibble: 756 × 6
#>    specialty    period_id months_waited_id type       value trust
#>    <chr>            <int>            <dbl> <chr>      <dbl> <chr>
#>  1 Oral Surgery        14                0 Incomplete 1707. 15E  
#>  2 Oral Surgery        14                1 Incomplete 1699. 15E  
#>  3 Oral Surgery        14                2 Incomplete 1805. 15E  
#>  4 Oral Surgery        14                3 Incomplete 1636. 15E  
#>  5 Oral Surgery        14                4 Incomplete 1527. 15E  
#>  6 Oral Surgery        14                5 Incomplete 1253  15E  
#>  7 Oral Surgery        14                6 Incomplete  878. 15E  
#>  8 Oral Surgery        14                7 Incomplete  560. 15E  
#>  9 Oral Surgery        14                8 Incomplete  347. 15E  
#> 10 Oral Surgery        14                9 Incomplete  267. 15E  
#> # ℹ 746 more rows
…
